Class_2_17_25/test.vcd
$date
	Mon Feb 17 15:57:24 2025
$end

$version
	Synopsys VCS version W-2024.09-SP1_Full64
$end

$timescale
	1s
$end

$comment Csum: 1 a7eb03f53f84212a $end


$scope module practice_test_top $end
$var reg 1 ! SystemClock $end

$scope module top_io $end
$var reg 1 " clk $end
$var reg 1 # w $end
$var reg 1 $ reset $end
$var reg 1 % z $end
$upscope $end


$scope module dut $end
$var wire 1 & w $end
$var wire 1 ' clk $end
$var wire 1 ( reset $end
$var reg 1 ) z $end
$var reg 3 * ps [2:0] $end
$var reg 3 + ns [2:0] $end
$upscope $end

$upscope $end

$enddefinitions $end

#0
$dumpvars
0!
0)
b000 +
b000 *
0"
x&
0'
0(
0$
x#
0%
$end
#50
1!
1"
1'
#100
0!
0"
0'
#150
1"
1'
#200
0"
0'
#250
1"
1'
1$
1(
0#
0&
b001 +
#300
0"
0'
#350
1"
1'
b001 *
b000 +
#400
0"
0'
#450
1"
1'
b000 *
b001 +
#500
0"
0'
#550
1"
1'
b001 *
b000 +
#600
0"
0'
#650
1"
1'
b000 *
b001 +
#700
0"
0'
#750
1"
1'
b001 *
b000 +
#800
0"
0'
#850
1"
1'
b000 *
b001 +
0$
0(
#900
0"
0'
#950
1"
1'
#1000
0"
0'
#1050
1"
1'
#1100
0"
0'
#1150
1"
1'
1$
1(
#1200
0"
0'
#1250
1"
1'
b001 *
b000 +
#1300
0"
0'
#1350
1"
1'
b000 *
b001 +
#1400
0"
0'
#1450
1"
1'
b001 *
b000 +
#1500
0"
0'
#1550
1"
1'
b000 *
b001 +
#1600
0"
0'
#1650
1"
1'
b001 *
b000 +
#1700
0"
0'
#1750
1"
1'
b000 *
b001 +
#1800
0"
0'
#1850
1"
1'
b001 *
b000 +
#1900
0"
0'
#1950
1"
1'
b000 *
b001 +
0$
0(
#2000
0"
0'
#2050
1"
1'
#2100
0"
0'
#2150
1"
1'
#2200
0"
0'
#2250
1"
1'
1$
1(
#2300
0"
0'
#2350
1"
1'
b001 *
b000 +
1#
1&
b010 +
#2400
0"
0'
#2450
1"
1'
b010 *
b011 +
#2500
0"
0'
#2550
1"
1'
b011 *
b000 +
#2600
0"
0'
#2650
1"
1'
b000 *
#2700
0"
0'
#2750
1"
1'
0#
0&
b001 +
#2800
0"
0'
#2850
1"
1'
b001 *
b000 +
#2900
0"
0'
#2950
1"
1'
b000 *
b001 +
1#
1&
b000 +
#3000
0"
0'
#3050
1"
1'
0$
0(
#3100
0"
0'
#3150
1"
1'
#3200
0"
0'
#3250
1"
1'
#3300
0"
0'
#3350
1"
1'
1$
1(
0#
0&
b001 +
#3400
0"
0'
#3450
1"
1'
b001 *
b000 +
1#
1&
b010 +
#3500
0"
0'
#3550
1"
1'
b010 *
b011 +
#3600
0"
0'
#3650
1"
1'
b011 *
b000 +
0#
0&
b100 +
#3700
0"
0'
#3750
1"
1'
b100 *
b101 +
#3800
0"
0'
#3850
1"
1'
b101 *
b000 +
1#
1&
b110 +
#3900
0"
0'
#3950
1"
1'
b110 *
b111 +
#4000
0"
0'
#4050
1"
1'
b111 *
b000 +
1)
1%
0#
0&
#4100
0"
0'
#4150
1"
1'
b000 *
b001 +
0)
0%
0$
0(
#4200
0"
0'
#4250
1"
1'
#4300
0"
0'
#4350
1"
1'
#4400
0"
0'
#4450
1"
1'
1$
1(
#4500
0"
0'
#4550
1"
1'
b001 *
b000 +
1#
1&
b010 +
#4600
0"
0'
#4650
1"
1'
b010 *
b011 +
#4700
0"
0'
#4750
1"
1'
b011 *
b000 +
0#
0&
b100 +
#4800
0"
0'
#4850
1"
1'
b100 *
b101 +
#4900
0"
0'
#4950
1"
1'
b101 *
b000 +
1#
1&
b110 +
#5000
0"
0'
#5050
1"
1'
b110 *
b111 +
#5100
0"
0'
#5150
1"
1'
b111 *
b000 +
1)
1%
0$
0(
b000 *
0)
0%
#5200
0"
0'
#5250
1"
1'
#5300
0"
0'
#5350
1"
1'
#5400
0"
0'
#5450
1"
1'
1$
1(
0#
0&
b001 +
#5500
0"
0'
#5550
1"
1'
b001 *
b000 +
1#
1&
b010 +
#5600
0"
0'
#5650
1"
1'
b010 *
b011 +
#5700
0"
0'
#5750
1"
1'
b011 *
b000 +
0#
0&
b100 +
#5800
0"
0'
#5850
1"
1'
b100 *
b101 +
#5900
0"
0'
#5950
1"
1'
b101 *
b000 +
1#
1&
b110 +
#6000
0"
0'
#6050
1"
1'
b110 *
b111 +
0$
0(
b000 *
b000 +
#6100
0"
0'
#6150
1"
1'
#6200
0"
0'
#6250
1"
1'
#6300
0"
0'
#6350
1"
1'
1$
1(
0#
0&
b001 +
#6400
0"
0'
#6450
1"
1'
b001 *
b000 +
1#
1&
b010 +
#6500
0"
0'
#6550
1"
1'
b010 *
b011 +
#6600
0"
0'
#6650
1"
1'
b011 *
b000 +
0#
0&
b100 +
#6700
0"
0'
#6750
1"
1'
b100 *
b101 +
#6800
0"
0'
#6850
1"
1'
b101 *
b000 +
0$
0(
b000 *
b001 +
#6900
0"
0'
#6950
1"
1'
#7000
0"
0'
#7050
1"
1'
#7100
0"
0'
#7150
1"
1'
1$
1(
#7200
0"
0'
#7250
1"
1'
b001 *
b000 +
1#
1&
b010 +
#7300
0"
0'
#7350
1"
1'
b010 *
b011 +
#7400
0"
0'
#7450
1"
1'
b011 *
b000 +
0#
0&
b100 +
#7500
0"
0'
#7550
1"
1'
b100 *
b101 +
#7600
0"
0'
#7650
1"
1'
b101 *
b000 +
0$
0(
b000 *
b001 +
#7700
0"
0'
#7750
1"
1'
#7800
0"
0'
#7850
1"
1'
#7900
0"
0'
#7950
1"
1'
1$
1(
#8000
0"
0'
#8050
1"
1'
b001 *
b000 +
1#
1&
b010 +
#8100
0"
0'
#8150
1"
1'
b010 *
b011 +
#8200
0"
0'
#8250
1"
1'
b011 *
b000 +
0#
0&
b100 +
#8300
0"
0'
#8350
1"
1'
b100 *
b101 +
0$
0(
b000 *
b001 +
#8400
0"
0'
#8450
1"
1'
#8500
0"
0'
#8550
1"
1'
#8600
0"
0'
#8650
1"
1'
1$
1(
#8700
0"
0'
#8750
1"
1'
b001 *
b000 +
1#
1&
b010 +
#8800
0"
0'
#8850
1"
1'
b010 *
b011 +
#8900
0"
0'
#8950
1"
1'
b011 *
b000 +
0$
0(
b000 *
#9000
0"
0'
#9050
1"
1'
#9100
0"
0'
#9150
1"
1'
#9200
0"
0'
#9250
1"
1'
1$
1(
0#
0&
b001 +
#9300
0"
0'
#9350
1"
1'
b001 *
b000 +
1#
1&
b010 +
#9400
0"
0'
#9450
1"
1'
b010 *
b011 +
0$
0(
b000 *
b000 +
#9500
0"
0'
#9550
1"
1'
#9600
0"
0'
#9650
1"
1'
#9700
0"
0'
#9750
1"
1'
1$
1(
0#
0&
b001 +
#9800
0"
0'
#9850
1"
1'
b001 *
b000 +
0$
0(
b000 *
b001 +
#9900
0"
0'
#9950
1"
1'
#10000
0"
0'
#10050
1"
1'
#10100
0"
0'
#10150
1"
1'
#10200
0"
0'
#10250
1"
1'
#10300
0"
0'
#10350
1"
1'
#10400
0"
0'
#10450
1"
1'
#10500
0"
0'
#10550
1"
1'
#10600
0"
0'
#10650
1"
1'
#10700
0"
0'
#10750
1"
1'
1$
1(
#10800
0"
0'
#10850
1"
1'
b001 *
b000 +
0$
0(
b000 *
b001 +
#10900
0"
0'
#10950
1"
1'
#11000
0"
0'
#11050
1"
1'
#11100
0"
0'
#11150
1"
1'
1$
1(
#11200
0"
0'
#11250
1"
1'
b001 *
b000 +
1#
1&
b010 +
#11300
0"
0'
#11350
1"
1'
b010 *
b011 +
#11400
0"
0'
#11450
1"
1'
b011 *
b000 +
0#
0&
b100 +
#11500
0"
0'
#11550
1"
1'
b100 *
b101 +
#11600
0"
0'
#11650
1"
1'
b101 *
b000 +
1#
1&
b110 +
#11700
0"
0'
#11750
1"
1'
b110 *
b111 +
#11800
0"
0'
#11850
1"
1'
b111 *
b000 +
1)
1%
#11900
0"
0'
#11950
1"
1'
b000 *
0)
0%
0$
0(
#12000
0"
0'
#12050
1"
1'
#12100
0"
0'
#12150
1"
1'
#12200
0"
0'
#12250
1"
1'
1$
1(
0#
0&
b001 +
#12300
0"
0'
#12350
1"
1'
b001 *
b000 +
1#
1&
b010 +
#12400
0"
0'
#12450
1"
1'
b010 *
b011 +
#12500
0"
0'
#12550
1"
1'
b011 *
b000 +
0#
0&
b100 +
#12600
0"
0'
#12650
1"
1'
b100 *
b101 +
#12700
0"
0'
#12750
1"
1'
b101 *
b000 +
1#
1&
b110 +
#12800
0"
0'
#12850
1"
1'
b110 *
b111 +
0#
0&
b000 +
#12900
0"
0'
#12950
1"
1'
b000 *
b001 +
0$
0(
#13000
0"
0'
#13050
1"
1'
#13100
0"
0'
#13150
1"
1'
#13200
0"
0'
#13250
1"
1'
1$
1(
#13300
0"
0'
#13350
1"
1'
b001 *
b000 +
1#
1&
b010 +
#13400
0"
0'
#13450
1"
1'
b010 *
b011 +
#13500
0"
0'
#13550
1"
1'
b011 *
b000 +
0#
0&
b100 +
#13600
0"
0'
#13650
1"
1'
b100 *
b101 +
#13700
0"
0'
#13750
1"
1'
b101 *
b000 +
#13800
0"
0'
#13850
1"
1'
b000 *
b001 +
0$
0(
#13900
0"
0'
#13950
1"
1'
#14000
0"
0'
#14050
1"
1'
#14100
0"
0'
#14150
1"
1'
1$
1(
#14200
0"
0'
#14250
1"
1'
b001 *
b000 +
1#
1&
b010 +
#14300
0"
0'
#14350
1"
1'
b010 *
b011 +
#14400
0"
0'
#14450
1"
1'
b011 *
b000 +
0#
0&
b100 +
#14500
0"
0'
#14550
1"
1'
b100 *
b101 +
1#
1&
b000 +
#14600
0"
0'
#14650
1"
1'
b000 *
0$
0(
#14700
0"
0'
#14750
1"
1'
#14800
0"
0'
#14850
1"
1'
#14900
0"
0'
#14950
1"
1'
1$
1(
0#
0&
b001 +
#15000
0"
0'
#15050
1"
1'
b001 *
b000 +
1#
1&
b010 +
#15100
0"
0'
#15150
1"
1'
b010 *
b011 +
#15200
0"
0'
#15250
1"
1'
b011 *
b000 +
0#
0&
b100 +
#15300
0"
0'
#15350
1"
1'
b100 *
b101 +
1#
1&
b000 +
#15400
0"
0'
#15450
1"
1'
b000 *
0$
0(
#15500
0"
0'
#15550
1"
1'
#15600
0"
0'
#15650
1"
1'
#15700
0"
0'
#15750
1"
1'
1$
1(
0#
0&
b001 +
#15800
0"
0'
#15850
1"
1'
b001 *
b000 +
1#
1&
b010 +
#15900
0"
0'
#15950
1"
1'
b010 *
b011 +
#16000
0"
0'
#16050
1"
1'
b011 *
b000 +
#16100
0"
0'
#16150
1"
1'
b000 *
0$
0(
#16200
0"
0'
#16250
1"
1'
#16300
0"
0'
#16350
1"
1'
#16400
0"
0'
#16450
1"
1'
1$
1(
0#
0&
b001 +
#16500
0"
0'
#16550
1"
1'
b001 *
b000 +
1#
1&
b010 +
#16600
0"
0'
#16650
1"
1'
b010 *
b011 +
0#
0&
b000 +
#16700
0"
0'
#16750
1"
1'
b000 *
b001 +
0$
0(
#16800
0"
0'
#16850
1"
1'
#16900
0"
0'
#16950
1"
1'
#17000
0"
0'
#17050
1"
1'
1$
1(
#17100
0"
0'
#17150
1"
1'
b001 *
b000 +
#17200
0"
0'
#17250
1"
1'
b000 *
b001 +
0$
0(
#17300
0"
0'
#17350
1"
1'
#17400
0"
0'
#17450
1"
1'
#17500
0"
0'
#17550
1"
1'
1$
1(
1#
1&
b000 +
#17600
0"
0'
#17650
1"
1'
0$
0(
#17700
0"
0'
#17750
1"
1'
#17800
0"
0'
#17850
1"
1'
#17900
0"
0'
#17950
1"
1'
#18000
0"
0'
#18050
1"
1'
#18100
0"
0'
#18150
1"
1'
#18200
0"
0'
#18250
1"
1'
#18300
0"
0'
#18350
1"
1'
#18400
0"
0'
#18450
1"
1'
#18500
0"
0'
#18550
1"
1'
1$
1(
